<svg xmlns="http://www.w3.org/2000/svg" x="0px" y="0px" width="48" height="48" viewBox="0 0 172 172" style="fill: #000000">
    <g fill="none" fill-rule="nonzero" stroke="none" stroke-width="1" stroke-linecap="butt" stroke-linejoin="miter" stroke-miterlimit="10" stroke-dasharray="" stroke-dashoffset="0" font-family="none" font-weight="none" font-size="none" text-anchor="none" style="mix-blend-mode: normal">
        <path d="M0,172v-172h172v172z" fill="none"></path>
        <path d="M86,172c-47.49649,0 -86,-38.50351 -86,-86v0c0,-47.49649 38.50351,-86 86,-86v0c47.49649,0 86,38.50351 86,86v0c0,47.49649 -38.50351,86 -86,86z" fill="#cccccc"></path>
        <g>
            <path d="M132.60797,68.68847l-11.09714,6.10342l-11.09714,10.54228v36.17666h15.53599c3.67759,0 6.65828,-2.98069 6.65828,-6.65828z" fill="#4caf50"></path>
            <path d="M39.39203,68.68847l8.02101,3.79522l14.17326,12.85048v36.17666h-15.53599c-3.67759,0 -6.65828,-2.98069 -6.65828,-6.65828z" fill="#1e88e5"></path>
            <path d="M110.4137,57.59133l-24.4137,18.31027l-24.4137,-18.31027l-2.21943,12.87268l2.21943,14.87016l24.4137,18.31027l24.4137,-18.31027l2.21943,-14.87016z" fill="#e53935"></path>
            <path d="M39.39203,60.02826v8.6602l22.19427,16.6457v-27.74284l-6.93349,-5.19568c-1.65125,-1.23844 -3.65762,-1.90649 -5.72168,-1.90649v0c-5.26892,0 -9.5391,4.27018 -9.5391,9.5391z" fill="#c62828"></path>
            <path d="M132.60797,60.02826v8.6602l-22.19427,16.6457v-27.74284l6.93349,-5.19568c1.65125,-1.23844 3.65762,-1.90649 5.72168,-1.90649v0c5.26892,0 9.5391,4.27018 9.5391,9.5391z" fill="#fbc02d"></path>
        </g>
    </g>
</svg>